<?xml version="1.0" encoding="UTF-8" standalone="no"?>
<svg width="20px" height="40px" viewBox="0 0 20 40" version="1.1" xmlns="http://www.w3.org/2000/svg" xmlns:xlink="http://www.w3.org/1999/xlink" xmlns:sketch="http://www.bohemiancoding.com/sketch/ns">
    <!-- Generator: Sketch 3.2.2 (9983) - http://www.bohemiancoding.com/sketch -->
    <title>Artboard 4</title>
    <desc>Created with Sketch.</desc>
    <defs></defs>
    <g id="Page-1" stroke="none" stroke-width="1" fill="none" fill-rule="evenodd" sketch:type="MSPage">
        <g id="Artboard-4" sketch:type="MSArtboardGroup">
            <path d="M8.61956896,11.9164814 L5.57950048,9.54131957 L4.37257966,11.0861078 L8.55198718,14.3514188 L8.635911,14.2440012 L9.10067585,14.6071153 L15.6274203,6.25326332 L14.0233164,5 L8.61956896,11.9164814 Z" id="Rectangle-7" fill="#3F80AE" sketch:type="MSShapeGroup"></path>
            <path d="M8.61956896,31.9164814 L5.57950048,29.5413196 L4.37257966,31.0861078 L8.55198718,34.3514188 L8.635911,34.2440012 L9.10067585,34.6071153 L15.6274203,26.2532633 L14.0233164,25 L8.61956896,31.9164814 Z" id="Rectangle-8" fill="#FFFFFF" sketch:type="MSShapeGroup"></path>
        </g>
    </g>
</svg>